{
  "images" : [
    {
      "idiom" : "universal",
      "filename" : "Screen Shot 2019-12-04 at 4.37.50 AM.png",
      "scale" : "1x"
    },
    {
      "idiom" : "universal",
      "scale" : "2x"
    },
    {
      "idiom" : "universal",
      "scale" : "3x"
    }
  ],
  "info" : {
    "version" : 1,
    "author" : "xcode"
  }
}